[
    {
        "type":"section",
        "text":{
            "type":"mrkdwn",
            "text":"*Schedule for date* {d}:"
        }
    },
    {
        "type":"divider"
    },
    {
        "type":"section",
        "fields":[
            {
                "type":"mrkdwn",
                "text":"*User*"
            },
            {
                "type":"mrkdwn",
                "text":"*Time*"
            },
            {
                "type":"mrkdwn",
                "text":"*Technician*"
            },
            {
                "type":"mrkdwn",
                "text":"*Reason*"
            }
        ]
    }
]
